\relax 
\providecommand\HyperFirstAtBeginDocument{\AtBeginDocument}
\HyperFirstAtBeginDocument{\ifx\hyper@anchor\@undefined
\global\let\oldcontentsline\contentsline
\gdef\contentsline#1#2#3#4{\oldcontentsline{#1}{#2}{#3}}
\global\let\oldnewlabel\newlabel
\gdef\newlabel#1#2{\newlabelxx{#1}#2}
\gdef\newlabelxx#1#2#3#4#5#6{\oldnewlabel{#1}{{#2}{#3}}}
\AtEndDocument{\ifx\hyper@anchor\@undefined
\let\contentsline\oldcontentsline
\let\newlabel\oldnewlabel
\fi}
\fi}
\global\let\hyper@last\relax 
\gdef\HyperFirstAtBeginDocument#1{#1}
\providecommand\HyField@AuxAddToFields[1]{}
\@writefile{toc}{\contentsline {section}{\numberline {1}Results}{3}{section.1}}
\@writefile{toc}{\contentsline {subsection}{\numberline {1.1}pen-digits}{3}{subsection.1.1}}
\newlabel{sec:pen-digits}{{1.1}{3}{pen-digits\relax }{subsection.1.1}{}}
\@writefile{toc}{\contentsline {subsection}{\numberline {1.2}nursery}{3}{subsection.1.2}}
\@writefile{toc}{\contentsline {subsection}{\numberline {1.3}page-blocks}{4}{subsection.1.3}}
\@writefile{toc}{\contentsline {subsection}{\numberline {1.4}glass}{4}{subsection.1.4}}
\@writefile{toc}{\contentsline {subsection}{\numberline {1.5}yeast}{5}{subsection.1.5}}
\@writefile{toc}{\contentsline {section}{\numberline {2}Analysis}{6}{section.2}}
\@writefile{toc}{\contentsline {subsection}{\numberline {2.1}Overfitting}{6}{subsection.2.1}}
\@writefile{toc}{\contentsline {subsection}{\numberline {2.2}Error propagation}{6}{subsection.2.2}}
